<?xml version="1.0" encoding="utf-8"?>
<!-- Generator: Adobe Illustrator 18.0.0, SVG Export Plug-In . SVG Version: 6.00 Build 0)  -->
<!DOCTYPE svg PUBLIC "-//W3C//DTD SVG 1.1//EN" "http://www.w3.org/Graphics/SVG/1.1/DTD/svg11.dtd">
<svg version="1.1" id="Layer_1" xmlns="http://www.w3.org/2000/svg" xmlns:xlink="http://www.w3.org/1999/xlink" x="0px" y="0px"
	 viewBox="0 0 400 400" enable-background="new 0 0 400 400" xml:space="preserve">
<path fill="#FFFFFF" d="M337,209.9c-32.6-7.9-64.3-0.9-80.4,15.9l-55.7-32L148.4,83.6c0,0-37.5-92.3-71.9-82.9l68.1,160.7L1.9,79.4
	c-15.9,29.9,74.9,80.5,74.9,80.5l91.6,57.7l18,42.6c-20.5,11.8-33.5,39.7-30.8,71c3.4,40.2,31.2,71,62.2,68.7s53.3-36.7,49.9-77v0
	c-2.3-27.7-16.3-50.9-34.8-61.9l-1.9-3.9l18.3,11.5c8.4,19,30.5,35.8,59.3,42.8c42,10.1,82.3-4.4,90.1-32.4v0
	C406.5,251,378.9,220,337,209.9z M185.2,217.4c-5.1,0-9.3-3.9-9.3-8.7s4.2-8.7,9.3-8.7s9.3,3.9,9.3,8.7S190.3,217.4,185.2,217.4z
	 M251,335.5c-5.8,25.2-28.2,42.1-50,37.8c-21.8-4.4-34.7-28.4-28.9-53.6c5.8-25.2,28.2-42.1,50-37.8
	C243.8,286.2,256.8,310.2,251,335.5z M324.8,298.2c-27.6,0.9-50.7-15.2-51.5-35.9s21-38.3,48.6-39.2c27.7-0.9,50.7,15.1,51.5,35.9
	C374.2,279.7,352.4,297.3,324.8,298.2z"/>
</svg>
